riscof_work/B/src/rol-01.S/dut/test.vcd
$date
	Thu Jan 23 00:04:36 2025
$end
$version
	Icarus Verilog
$end
$timescale
	1ps
$end
$scope module test $end
$var reg 32 ! SIGNATURE_BEGIN [31:0] $end
$var reg 32 " SIGNATURE_END [31:0] $end
$var reg 1 # clk $end
$var reg 1 $ rst $end
$var reg 1024 % sig_file [1023:0] $end
$var integer 32 & cycle_count [31:0] $end
$var integer 32 ' f [31:0] $end
$var integer 32 ( i [31:0] $end
$var integer 32 ) ret [31:0] $end
$scope module core_0 $end
$var wire 1 # clk $end
$var wire 1 * e_br_pred_miss $end
$var wire 1 + e_trap $end
$var wire 1 $ rst $end
$var wire 32 , next_pc [31:0] $end
$var wire 32 - mw_rd_data [31:0] $end
$var wire 32 . mw_mem_raw_r_data [31:0] $end
$var wire 32 / mw_mem_fmt_r_data [31:0] $end
$var wire 1 0 fd_zicsr $end
$var wire 32 1 fd_tmp_rs2_data [31:0] $end
$var wire 32 2 fd_tmp_rs1_data [31:0] $end
$var wire 1 3 fd_store $end
$var wire 1 4 fd_rs2_sel $end
$var wire 32 5 fd_rs2_data [31:0] $end
$var wire 1 6 fd_rs1_sel $end
$var wire 32 7 fd_rs1_data [31:0] $end
$var wire 1 8 fd_reg_we $end
$var wire 32 9 fd_pc_plus4 [31:0] $end
$var wire 1 : fd_mret $end
$var wire 1 ; fd_load $end
$var wire 1 < fd_lduse $end
$var wire 1 = fd_jump $end
$var wire 32 > fd_inst [31:0] $end
$var wire 32 ? fd_imm [31:0] $end
$var wire 1 @ fd_illegal_inst $end
$var wire 1 A fd_ecall $end
$var wire 2 B fd_e_out_sel [1:0] $end
$var wire 1 C fd_branch $end
$var wire 6 D fd_alu_sel [5:0] $end
$var wire 1 E fd_alu_in2_sel $end
$var wire 1 F fd_alu_in1_sel $end
$var wire 32 G e_rs1_plus_imm [31:0] $end
$var wire 32 H e_pc_plus4 [31:0] $end
$var wire 32 I e_out [31:0] $end
$var wire 4 J e_mem_we [3:0] $end
$var wire 32 K e_mem_w_data [31:0] $end
$var wire 32 L e_mem_rw_addr [31:0] $end
$var wire 1 M e_ma_stall $end
$var wire 32 N e_csr_r_data [31:0] $end
$var wire 1 O e_br_en $end
$var wire 32 P e_alu_out [31:0] $end
$var wire 32 Q e_alu_in2 [31:0] $end
$var wire 32 R e_alu_in1 [31:0] $end
$var reg 1 S e_alu_in1_sel $end
$var reg 1 T e_alu_in2_sel $end
$var reg 6 U e_alu_sel [5:0] $end
$var reg 1 V e_branch $end
$var reg 1 W e_ecall $end
$var reg 3 X e_funct3 [2:0] $end
$var reg 1 Y e_illegal_inst $end
$var reg 32 Z e_imm [31:0] $end
$var reg 12 [ e_inst_31_20 [11:0] $end
$var reg 1 \ e_jump $end
$var reg 1 ] e_load $end
$var reg 1 ^ e_mret $end
$var reg 2 _ e_out_sel [1:0] $end
$var reg 32 ` e_pc [31:0] $end
$var reg 5 a e_rd_addr [4:0] $end
$var reg 1 b e_reg_we $end
$var reg 5 c e_rs1_addr [4:0] $end
$var reg 32 d e_rs1_data [31:0] $end
$var reg 32 e e_rs2_data [31:0] $end
$var reg 1 f e_store $end
$var reg 1 g e_zicsr $end
$var reg 32 h fd_pc [31:0] $end
$var reg 32 i mw_e_out [31:0] $end
$var reg 3 j mw_funct3 [2:0] $end
$var reg 1 k mw_load $end
$var reg 5 l mw_rd_addr [4:0] $end
$var reg 1 m mw_reg_we $end
$scope module alu_0 $end
$var wire 32 n in1 [31:0] $end
$var wire 32 o in2 [31:0] $end
$var wire 6 p sel [5:0] $end
$var reg 32 q div_result [31:0] $end
$var reg 64 r mul_result_signed [63:0] $end
$var reg 64 s mul_result_unsigned [63:0] $end
$var reg 32 t out [31:0] $end
$var reg 32 u rem_result [31:0] $end
$upscope $end
$scope module br_unit_0 $end
$var wire 32 v in1 [31:0] $end
$var wire 32 w in2 [31:0] $end
$var wire 3 x sel [2:0] $end
$var reg 1 O br_en $end
$upscope $end
$scope module csr_0 $end
$var wire 12 y addr [11:0] $end
$var wire 1 # clk $end
$var wire 1 W ecall $end
$var wire 3 z funct3 [2:0] $end
$var wire 1 Y illegal_inst $end
$var wire 1 ^ mret $end
$var wire 32 { pc [31:0] $end
$var wire 32 | rs1_data [31:0] $end
$var wire 1 $ rst $end
$var wire 5 } uimm [4:0] $end
$var wire 1 g zicsr $end
$var wire 32 ~ w_data [31:0] $end
$var wire 32 !" operand [31:0] $end
$var reg 32 "" mcause [31:0] $end
$var reg 32 #" mepc [31:0] $end
$var reg 32 $" mscratch [31:0] $end
$var reg 1 %" mstatus_mie $end
$var reg 1 &" mstatus_mpie $end
$var reg 2 '" mstatus_mpp [1:0] $end
$var reg 32 (" mtvec [31:0] $end
$var reg 2 )" privilege_mode [1:0] $end
$var reg 32 *" r_data [31:0] $end
$upscope $end
$scope module decoder_0 $end
$var wire 1 ] e_load $end
$var wire 5 +" e_rd_addr [4:0] $end
$var wire 1 b e_reg_we $end
$var wire 1 < lduse $end
$var wire 32 ," inst [31:0] $end
$var reg 1 F alu_in1_sel $end
$var reg 1 E alu_in2_sel $end
$var reg 6 -" alu_sel [5:0] $end
$var reg 1 C branch $end
$var reg 2 ." e_out_sel [1:0] $end
$var reg 1 A ecall $end
$var reg 1 @ illegal_inst $end
$var reg 32 /" imm [31:0] $end
$var reg 1 = jump $end
$var reg 1 0" lduse_rs1 $end
$var reg 1 1" lduse_rs2 $end
$var reg 1 ; load $end
$var reg 1 : mret $end
$var reg 1 8 reg_we $end
$var reg 1 6 rs1_sel $end
$var reg 1 4 rs2_sel $end
$var reg 1 3 store $end
$var reg 1 2" use_rs1 $end
$var reg 1 3" use_rs2 $end
$var reg 1 0 zicsr $end
$upscope $end
$scope module ma_ctrl_0 $end
$var wire 1 # clk $end
$var wire 32 4" in_addr [31:0] $end
$var wire 32 5" in_data [31:0] $end
$var wire 2 6" len [1:0] $end
$var wire 1 ] load $end
$var wire 1 M stall $end
$var wire 1 f store $end
$var wire 56 7" shifted_data [55:0] $end
$var reg 1 8" misaligned $end
$var reg 32 9" out_addr [31:0] $end
$var reg 32 :" out_data [31:0] $end
$var reg 32 ;" prev_addr [31:0] $end
$var reg 1 <" second_access $end
$var reg 4 =" we [3:0] $end
$upscope $end
$scope module r_data_fmt_0 $end
$var wire 1 # clk $end
$var wire 1 M e_ma_stall $end
$var wire 2 >" len [1:0] $end
$var wire 2 ?" low_addr [1:0] $end
$var wire 1 @" uns $end
$var wire 32 A" shifted_data [31:0] $end
$var wire 32 B" in_data [31:0] $end
$var reg 1 C" first_access $end
$var reg 32 D" out_data [31:0] $end
$var reg 32 E" prev_data [31:0] $end
$var reg 1 F" second_access $end
$upscope $end
$scope module ram_0 $end
$var wire 32 G" addr1 [31:0] $end
$var wire 32 H" addr2 [31:0] $end
$var wire 1 I" ce1 $end
$var wire 1 # clk $end
$var wire 32 J" w_data2 [31:0] $end
$var wire 4 K" we2 [3:0] $end
$var reg 32 L" r_data1 [31:0] $end
$var reg 32 M" r_data2 [31:0] $end
$upscope $end
$scope module reg_file_0 $end
$var wire 1 # clk $end
$var wire 5 N" r_addr1 [4:0] $end
$var wire 5 O" r_addr2 [4:0] $end
$var wire 5 P" w_addr [4:0] $end
$var wire 32 Q" w_data [31:0] $end
$var wire 1 m we $end
$var wire 32 R" r_data2 [31:0] $end
$var wire 32 S" r_data1 [31:0] $end
$upscope $end
$upscope $end
$upscope $end
$enddefinitions $end
#0
$dumpvars
bx S"
bx R"
bx Q"
bx P"
bx O"
bx N"
bx M"
bx L"
bx K"
bx J"
xI"
bx H"
b0 G"
xF"
bx E"
bx D"
xC"
bx B"
bx A"
x@"
bx ?"
bx >"
bx ="
x<"
bx ;"
bx :"
bx 9"
x8"
bx 7"
bx 6"
bx 5"
bx 4"
x3"
x2"
x1"
x0"
bx /"
bx ."
bx -"
bx ,"
bx +"
bx *"
b11 )"
bx ("
bx '"
x&"
x%"
bx $"
bx #"
bx ""
bx !"
bx ~
bx }
bx |
bx {
bx z
bx y
bx x
bx w
bx v
bx u
bx t
bx s
bx r
bx q
bx p
bx o
bx n
xm
bx l
xk
bx j
bx i
bx h
xg
xf
bx e
bx d
bx c
xb
bx a
bx `
bx _
x^
x]
x\
bx [
bx Z
xY
bx X
xW
xV
bx U
xT
xS
bx R
bx Q
bx P
xO
bx N
xM
bx L
bx K
bx J
bx I
bx H
bx G
xF
xE
bx D
xC
bx B
xA
x@
bx ?
bx >
x=
x<
x;
x:
bx 9
x8
bx 7
x6
bx 5
x4
x3
bx 2
bx 1
x0
bx /
bx .
bx -
b0 ,
x+
x*
b1 )
bx (
bx '
b0 &
b1011110110100001101111011011010110010100101111011001010110000101110011011011110110111000101111010001000110010101110011011010110111010001101111011100000010111101000011011011110110110101110000011101010111010001100101011100100100000101110010011000110110100001101001011101000110010101100011011101000111010101110010011001010010111101000110011010010110111001100001011011000101111101010000011100100110111101101010011001010110001101110100001011110111001001110110001100110011001001011111011000110110111101110010011001010010111101110010011010010111001101100011011011110110011001011111011101110110111101110010011010110010111101000010001011110111001101110010011000110010111101110010011011110110110000101101001100000011000100101110010100110010111101100100011101010111010000101111010001000101010101010100001011010110001101101111011100100110010100101110011100110110100101100111011011100110000101110100011101010111001001100101 %
1$
0#
b10000000000000000101010101010000 "
b10000000000000000101000100010000 !
$end
#5000
1I"
b0 ~
0M
0*
0<
0+
b0 I
b0 P
b0 t
b0 J
b0 ="
b0 K"
b0 K
b0 :"
b0 J"
b0 L
b0 9"
b0 H"
08"
b0 7"
b0 Q
b0 o
b0 R
b0 n
01"
00"
b0 6"
1O
b0 !"
b0 N
b0 *"
b0 ?"
b0 -
b0 Q"
b0 >"
0@"
1%"
0<"
bx00 ;"
b100 9
b0 h
0Y
0^
0W
0g
0f
0]
0V
0\
b0 _
0b
b0 U
b0 p
0T
0S
b0 G
b0 4"
b0 Z
b0 e
b0 w
b0 5"
b0 d
b0 v
b0 |
b100 H
b0 `
b0 {
b0 a
b0 +"
b0 X
b0 x
b0 z
b0 c
b0 }
b0 [
b0 y
0k
0m
b0 i
b0 l
b0 P"
b0 j
b1 &
1#
#10000
0#
#15000
b10101 O"
b11000 N"
03"
02"
0:
0A
00
03
0;
0C
0=
b1 B
b1 ."
18
b1111101010111000000000000000000 ?
b1111101010111000000000000000000 /"
0@
b10 &
0C"
b0 ;"
b1111101010111000000100000110111 .
b1111101010111000000100000110111 B"
b1111101010111000000100000110111 M"
b1111101010111000000100000110111 >
b1111101010111000000100000110111 ,"
b1111101010111000000100000110111 L"
1#
#20000
0#
#25000
b110111 /
b110111 D"
b1111101010111000000100000110111 A"
0F"
b1111101010111000000100000110111 E"
b11 &
1#
#30000
0#
#35000
b100 &
1#
#40000
0#
#45000
b101 &
1#
#50000
b100 ,
b100 G"
0#
0$
#55000
b1000 ,
b1000 G"
b1111101010111000000000000000000 7
b1111101010111000000000000000000 I
bx P
bx t
bx Q
bx o
bx R
bx n
bx K
bx :"
bx J"
bx00 L
bx00 9"
bx00 H"
xO
bx !"
b11011 O"
b10000 N"
16
12"
b0 D
b0 -"
b0 B
b0 ."
1E
0F
b11111111111111111111110111011011 ?
b11111111111111111111110111011011 /"
b110 &
b1 _
1b
bx U
bx p
xT
xS
b1111101010111000000000000000000 Z
bx 7"
bx e
bx w
bx 5"
bx G
bx 4"
bx d
bx v
bx |
b10000 a
b10000 +"
b11000 c
b11000 }
b11111010101 [
b11111010101 y
b1000 9
b100 h
b11011101101110000000100000010011 >
b11011101101110000000100000010011 ,"
b11011101101110000000100000010011 L"
1#
#60000
0#
#65000
bx /
bx D"
b1100 ,
b1100 G"
b1111101010110111111110111011011 P
b1111101010110111111110111011011 t
b1111101010111000000000000000000 2
b1111101010111000000000000000000 S"
bx A"
b1111101010110111111110111011011 7
b11111111111111111111110111011011 Q
b11111111111111111111110111011011 o
b111 O"
b101 D
b101 -"
b111 ?
b111 /"
b1111101010110111111110111011011 I
bx000000000000000000000000 K
bx000000000000000000000000 :"
bx000000000000000000000000 J"
b1111101010110111111110111011000 L
b1111101010110111111110111011000 9"
b1111101010110111111110111011000 H"
bx000000000000000000000000 7"
b1111101010111000000000000000000 !"
b1111101010111000000000000000000 R
b1111101010111000000000000000000 n
b1111101010111000000000000000000 -
b1111101010111000000000000000000 Q"
bx .
bx B"
bx M"
b11110000101100010010011 >
b11110000101100010010011 ,"
b11110000101100010010011 L"
bx00 ;"
b1100 9
b1000 h
b0 _
b0 U
b0 p
1T
0S
b11111111111111111111110111011011 Z
b1111101010110111111110111011011 G
b1111101010110111111110111011011 4"
b1111101010111000000000000000000 d
b1111101010111000000000000000000 v
b1111101010111000000000000000000 |
b1000 H
b100 `
b100 {
b10000 c
b10000 }
b110111011011 [
b110111011011 y
1m
b1111101010111000000000000000000 i
b10000 l
b10000 P"
b111 &
1#
#70000
0#
#75000
b0xxxxxxxx A"
b1111101010110111111110111011011 2
b1111101010110111111110111011011 S"
b10000 ,
b10000 G"
b1111101010110111111110111011011 7
b111110101011011111111011 I
bx0000000000000000 K
bx0000000000000000 :"
bx0000000000000000 J"
b10000 ~
b11 ?"
b1111101010110111111110111011011 -
b1111101010110111111110111011011 Q"
b111110101011011111111011 P
b111110101011011111111011 t
b111 Q
b111 o
b1111101010110111111110111011011 R
b1111101010110111111110111011011 n
b0xxxxxxxxxxxxxxxxxxxxxxxxxxxxxxxx0000000000000000 7"
b10000 !"
b1 6"
b1111101010110111111110111100000 L
b1111101010110111111110111100000 9"
b1111101010110111111110111100000 H"
b11001 O"
06
b11001 ?
b11001 /"
b1000 &
b1111101010110111111110111011011 i
b101 U
b101 p
b111 Z
b1111101010110111111110111100010 G
b1111101010110111111110111100010 4"
b1111101010110111111110111011011 d
b1111101010110111111110111011011 v
b1111101010110111111110111011011 |
b1100 H
b1000 `
b1000 {
b10001 a
b10001 +"
b101 X
b101 x
b101 z
b111 [
b111 y
b10000 9
b1100 h
bx E"
b1111101010110111111110111011000 ;"
b1100110000101011110010011 >
b1100110000101011110010011 ,"
b1100110000101011110010011 L"
1#
#80000
0#
#85000
b111110 5
b111110101011011111111011 7
b10100 ,
b10100 G"
b111110 I
b111110101011011111111011 2
b111110101011011111111011 S"
14
b111110 P
b111110 t
b0xxxxxxxx /
b0xxxxxxxx D"
b1111 O"
b10001 N"
13"
b110 D
b110 -"
0E
bx ?
bx /"
b11001 Q
b11001 o
bx K
bx :"
bx J"
b1111101010110111111110111110100 L
b1111101010110111111110111110100 9"
b1111101010110111111110111110100 H"
b0xxxxxxxxxxxxxxxxxxxxxxxxxxxxxxxx 7"
b111110101011011111111011 -
b111110101011011111111011 Q"
b1 >"
1@"
b111110001110100010110011 >
b111110001110100010110011 ,"
b111110001110100010110011 L"
b1111101010110111111110111100000 ;"
b10100 9
b10000 h
b1111101010110111111110111110100 G
b1111101010110111111110111110100 4"
b11001 Z
b10000 H
b1100 `
b1100 {
b1111 a
b1111 +"
b11001 [
b11001 y
b111110101011011111111011 i
b10001 l
b10001 P"
b101 j
b1001 &
1#
#90000
0#
#95000
b0xxxxxxxxxxxxxxxx /
b0xxxxxxxxxxxxxxxx D"
b0xxxxxxxxxxxxxxxx A"
b11000 ,
b11000 G"
bx 5
b111110101011011111111111 7
b111110101011011111111111 I
b10001 ~
b10 ?"
b111110 -
b111110 Q"
b111110101011011111111111 P
b111110101011011111111111 t
b111110 Q
b111110 o
b111110101011011111111011 R
b111110101011011111111011 n
b10 6"
0O
b10001 !"
bx K
bx :"
bx J"
bx00 L
bx00 9"
bx00 H"
b111 O"
x4
16
03"
b101 D
b101 -"
1E
b111 ?
b111 /"
b1010 &
b111110 i
b1111 l
b1111 P"
b110 U
b110 p
0T
bx Z
bx 7"
b111110 e
b111110 w
b111110 5"
bx G
bx 4"
b111110101011011111111011 d
b111110101011011111111011 v
b111110101011011111111011 |
b10100 H
b10000 `
b10000 {
b10001 a
b10001 +"
b110 X
b110 x
b110 z
b10001 c
b10001 }
b1111 [
b1111 y
b11000 9
b10100 h
b1111101010110111111110111110100 ;"
b11110001101100100010011 >
b11110001101100100010011 ,"
b11110001101100100010011 L"
1#
#100000
0#
#105000
b0xxxxxxxx /
b0xxxxxxxx D"
b11100 ,
b11100 G"
b0xxxxxxxx A"
b111110101011011111111111 2
b111110101011011111111111 S"
b11111010101101111 I
b11001 O"
b11001 ?
b11001 /"
b11111010101101111 P
b11111010101101111 t
bx0000000000000000 K
bx0000000000000000 :"
bx0000000000000000 J"
b111110101011100000000100 L
b111110101011100000000100 9"
b111110101011100000000100 H"
b0xxxxxxxxxxxxxxxxxxxxxxxxxxxxxxxx0000000000000000 7"
b111 Q
b111 o
b111110101011011111111111 R
b111110101011011111111111 n
06
b1 6"
xO
b11 ?"
b111110101011011111111111 -
b111110101011011111111111 Q"
b10 >"
b1100110001101011110010011 >
b1100110001101011110010011 ,"
b1100110001101011110010011 L"
bx00 ;"
b11100 9
b11000 h
b101 U
b101 p
1T
b111110101011100000000110 G
b111110101011100000000110 4"
b111 Z
bx e
bx w
bx 5"
b111110101011011111111111 d
b111110101011011111111111 v
b111110101011011111111111 |
b11000 H
b10100 `
b10100 {
b10010 a
b10010 +"
b101 X
b101 x
b101 z
b111 [
b111 y
b111110101011011111111111 i
b10001 l
b10001 P"
b110 j
b1011 &
1#
#110000
0#
#115000
b11111010101101111 7
b11111010101101111 2
b11111010101101111 S"
b0 I
b100000 ,
b100000 G"
b111110 1
b111110 R"
b0 5
b0 P
b0 t
bx K
bx :"
bx J"
b11111010101101111 -
b11111010101101111 Q"
b1 >"
b11001 Q
b11001 o
b0xxxxxxxxxxxxxxxxxxxxxxxxxxxxxxxx 7"
b111110101011100000011000 L
b111110101011100000011000 9"
b111110101011100000011000 H"
b1111 O"
b10010 N"
14
13"
b110 D
b110 -"
0E
bx ?
bx /"
b1100 &
b11111010101101111 i
b10010 l
b10010 P"
b101 j
b111110101011100000011000 G
b111110101011100000011000 4"
b11001 Z
b11100 H
b11000 `
b11000 {
b1111 a
b1111 +"
b11001 [
b11001 y
b100000 9
b11100 h
b111110101011100000000100 ;"
b111110010110100100110011 >
b111110010110100100110011 ,"
b111110010110100100110011 L"
1#
#120000
0#
#125000
bx 5
b0xxxxxxxxxxxxxxxx /
b0xxxxxxxxxxxxxxxx D"
b100100 ,
b100100 G"
b11111010101101111 7
bx A"
bx 1
bx R"
b11111010101101111 I
b10010 ~
b111 O"
03"
b101 D
b101 -"
1E
b111 ?
b111 /"
b11111010101101111 P
b11111010101101111 t
b0 Q
b0 o
b11111010101101111 R
b11111010101101111 n
bx K
bx :"
bx J"
bx00 L
bx00 9"
bx00 H"
x4
16
b10 6"
0O
b10010 !"
b0 ?"
b0 -
b0 Q"
b11110010101100110010011 >
b11110010101100110010011 ,"
b11110010101100110010011 L"
b111110101011100000011000 ;"
b100100 9
b100000 h
b110 U
b110 p
0T
bx Z
bx 7"
b0 e
b0 w
b0 5"
bx G
bx 4"
b11111010101101111 d
b11111010101101111 v
b11111010101101111 |
b100000 H
b11100 `
b11100 {
b10010 a
b10010 +"
b110 X
b110 x
b110 z
b10010 c
b10010 }
b1111 [
b1111 y
b0 i
b1111 l
b1111 P"
b1101 &
1#
#130000
0#
#135000
b0xxxxxxxx A"
b101000 ,
b101000 G"
b0xxxxxxxx /
b0xxxxxxxx D"
b1111101010 I
bx0000000000000000 K
bx0000000000000000 :"
bx0000000000000000 J"
b11 ?"
b11111010101101111 -
b11111010101101111 Q"
b10 >"
b1111101010 P
b1111101010 t
b0xxxxxxxxxxxxxxxxxxxxxxxxxxxxxxxx0000000000000000 7"
b111 Q
b111 o
b1 6"
xO
b11111010101110100 L
b11111010101110100 9"
b11111010101110100 H"
b11001 O"
06
b11001 ?
b11001 /"
b1110 &
b11111010101101111 i
b10010 l
b10010 P"
b110 j
b101 U
b101 p
1T
b11111010101110110 G
b11111010101110110 4"
b111 Z
bx e
bx w
bx 5"
b100100 H
b100000 `
b100000 {
b10011 a
b10011 +"
b101 X
b101 x
b101 z
b111 [
b111 y
b101000 9
b100100 h
bx00 ;"
b1100110010101011110010011 >
b1100110010101011110010011 ,"
b1100110010101011110010011 L"
1#
#140000
0#
#145000
b0 5
b0xxxxxxxxxxxxxxxx /
b0xxxxxxxxxxxxxxxx D"
b1111101010 7
b0 1
b0 R"
b101100 ,
b101100 G"
b0 I
b0xxxxxxxxxxxxxxxx A"
b1111101010 2
b1111101010 S"
14
b0 P
b0 t
b1111 O"
b10011 N"
13"
b110 D
b110 -"
0E
bx ?
bx /"
b11001 Q
b11001 o
bx K
bx :"
bx J"
b11111010110001000 L
b11111010110001000 9"
b11111010110001000 H"
b0xxxxxxxxxxxxxxxxxxxxxxxxxxxxxxxx 7"
b10 ?"
b1111101010 -
b1111101010 Q"
b1 >"
b111110011110100110110011 >
b111110011110100110110011 ,"
b111110011110100110110011 L"
b11111010101110100 ;"
b101100 9
b101000 h
b11111010110001000 G
b11111010110001000 4"
b11001 Z
b101000 H
b100100 `
b100100 {
b1111 a
b1111 +"
b11001 [
b11001 y
b1111101010 i
b10011 l
b10011 P"
b101 j
b1111 &
1#
#150000
0#
#155000
bx A"
b110000 ,
b110000 G"
bx 1
bx R"
bx 5
b1111101010 7
b1111101010 I
b10011 ~
b0 ?"
b0 -
b0 Q"
b1111101010 P
b1111101010 t
b0 Q
b0 o
b1111101010 R
b1111101010 n
b10 6"
0O
b10011 !"
bx K
bx :"
bx J"
bx00 L
bx00 9"
bx00 H"
b111 O"
x4
16
03"
b101 D
b101 -"
1E
b111 ?
b111 /"
b10000 &
b0 i
b1111 l
b1111 P"
b110 U
b110 p
0T
bx Z
bx 7"
b0 e
b0 w
b0 5"
bx G
bx 4"
b1111101010 d
b1111101010 v
b1111101010 |
b101100 H
b101000 `
b101000 {
b10011 a
b10011 +"
b110 X
b110 x
b110 z
b10011 c
b10011 }
b1111 [
b1111 y
b110000 9
b101100 h
b11111010110001000 ;"
b11110011101101000010011 >
b11110011101101000010011 ,"
b11110011101101000010011 L"
1#
#160000
0#
#165000
b110100 ,
b110100 G"
b0xxxxxxxxxxxxxxxx A"
b111 I
b0xxxxxxxxxxxxxxxx /
b0xxxxxxxxxxxxxxxx D"
b11001 O"
b11001 ?
b11001 /"
b111 P
b111 t
bx00000000 K
bx00000000 :"
bx00000000 J"
b1111110000 L
b1111110000 9"
b1111110000 H"
b0xxxxxxxxxxxxxxxxxxxxxxxxxxxxxxxx00000000 7"
b111 Q
b111 o
06
b1 6"
xO
b10 ?"
b1111101010 -
b1111101010 Q"
b10 >"
b1100110011101011110010011 >
b1100110011101011110010011 ,"
b1100110011101011110010011 L"
bx00 ;"
b110100 9
b110000 h
b101 U
b101 p
1T
b1111110001 G
b1111110001 4"
b111 Z
bx e
bx w
bx 5"
b110000 H
b101100 `
b101100 {
b10100 a
b10100 +"
b101 X
b101 x
b101 z
b111 [
b111 y
b1111101010 i
b10011 l
b10011 P"
b110 j
b10001 &
1#
#170000
0#
#175000
b111 7
b111 2
b111 S"
b0 I
b111000 ,
b111000 G"
b0 1
b0 R"
b0 5
b11001111 /
b11001111 D"
b0 P
b0 t
bx000000000000000000000000 K
bx000000000000000000000000 :"
bx000000000000000000000000 J"
b11001111 A"
b11 ?"
b111 -
b111 Q"
b1 >"
b11001 Q
b11001 o
18"
bx000000000000000000000000 7"
b10000000000 L
b10000000000 9"
b10000000000 H"
b1111 O"
b10100 N"
14
13"
b110 D
b110 -"
0E
bx ?
bx /"
b10010 &
b111 i
b10100 l
b10100 P"
b101 j
b10000000011 G
b10000000011 4"
b11001 Z
b110100 H
b110000 `
b110000 {
b1111 a
b1111 +"
b11001 [
b11001 y
b111000 9
b110100 h
b1111110000 ;"
b11001111011110101100001000110111 .
b11001111011110101100001000110111 B"
b11001111011110101100001000110111 M"
b111110100110101000110011 >
b111110100110101000110011 ,"
b111110100110101000110011 L"
1#
#180000
0#
#185000
bx 1
bx R"
bx 5
b1111001000110111 /
b1111001000110111 D"
b111100 ,
b111100 G"
b111 7
b1010001111101111001000110111 A"
b111 I
b10100 ~
b111 O"
03"
b101 D
b101 -"
1E
b111 ?
b111 /"
b111 P
b111 t
b0 Q
b0 o
b111 R
b111 n
bx K
bx :"
bx J"
bx00 L
bx00 9"
bx00 H"
08"
x4
16
b10 6"
0O
b10100 !"
b0 ?"
b0 -
b0 Q"
b1010001111101111001000110111 .
b1010001111101111001000110111 B"
b1010001111101111001000110111 M"
b11110100101101010010011 >
b11110100101101010010011 ,"
b11110100101101010010011 L"
b10000000000 ;"
b11001111011110101100001000110111 E"
b111100 9
b111000 h
b110 U
b110 p
0T
bx Z
bx 7"
b0 e
b0 w
b0 5"
bx G
bx 4"
b111 d
b111 v
b111 |
b111000 H
b110100 `
b110100 {
b10100 a
b10100 +"
b110 X
b110 x
b110 z
b10100 c
b10100 }
b1111 [
b1111 y
b0 i
b1111 l
b1111 P"
b10011 &
1#
#190000
0#
#195000
b1000000 ,
b1000000 G"
b0xxxxxxxx /
b0xxxxxxxx D"
b0 I
bx0000000000000000 K
bx0000000000000000 :"
bx0000000000000000 J"
b0xxxxxxxx A"
b11 ?"
b111 -
b111 Q"
b10 >"
b0 P
b0 t
b0xxxxxxxxxxxxxxxxxxxxxxxxxxxxxxxx0000000000000000 7"
b111 Q
b111 o
b1 6"
xO
b1100 L
b1100 9"
b1100 H"
b11001 O"
06
b11001 ?
b11001 /"
b10100 &
b111 i
b10100 l
b10100 P"
b110 j
b101 U
b101 p
1T
b1110 G
b1110 4"
b111 Z
bx e
bx w
bx 5"
b111100 H
b111000 `
b111000 {
b10101 a
b10101 +"
b101 X
b101 x
b101 z
b111 [
b111 y
b1000000 9
b111100 h
b1010001111101111001000110111 E"
bx00 ;"
bx .
bx B"
bx M"
b1100110100101011110010011 >
b1100110100101011110010011 ,"
b1100110100101011110010011 L"
1#
#200000
0#
#205000
b0 5
b0 7
b101011110010011 /
b101011110010011 D"
b0 1
b0 R"
b1000100 ,
b1000100 G"
b0 2
b0 S"
b1100110000101011110010011 A"
14
b1111 O"
b10101 N"
13"
b110 D
b110 -"
0E
bx ?
bx /"
b11001 Q
b11001 o
bx K
bx :"
bx J"
b100000 L
b100000 9"
b100000 H"
b0xxxxxxxxxxxxxxxxxxxxxxxxxxxxxxxx 7"
b0 ?"
b0 -
b0 Q"
b1 >"
b1100110000101011110010011 .
b1100110000101011110010011 B"
b1100110000101011110010011 M"
b111110101110101010110011 >
b111110101110101010110011 ,"
b111110101110101010110011 L"
b1100 ;"
bx E"
b1000100 9
b1000000 h
b100000 G
b100000 4"
b11001 Z
b1000000 H
b111100 `
b111100 {
b1111 a
b1111 +"
b11001 [
b11001 y
b0 i
b10101 l
b10101 P"
b101 j
b10101 &
1#
#210000
0#
#215000
b1001000 ,
b1001000 G"
b101100110010011 /
b101100110010011 D"
bx 1
bx R"
bx 5
b0 7
b0 I
b10101 ~
b11110010101100110010011 A"
b0 P
b0 t
b0 Q
b0 o
b0 R
b0 n
b10 6"
0O
b10101 !"
bx K
bx :"
bx J"
bx00 L
bx00 9"
bx00 H"
b111 O"
x4
16
03"
b101 D
b101 -"
1E
b111 ?
b111 /"
b10110 &
b1111 l
b1111 P"
b110 U
b110 p
0T
bx Z
bx 7"
b0 e
b0 w
b0 5"
bx G
bx 4"
b0 d
b0 v
b0 |
b1000100 H
b1000000 `
b1000000 {
b10101 a
b10101 +"
b110 X
b110 x
b110 z
b10101 c
b10101 }
b1111 [
b1111 y
b1001000 9
b1000100 h
b1100110000101011110010011 E"
b100000 ;"
b11110010101100110010011 .
b11110010101100110010011 B"
b11110010101100110010011 M"
b11110101101101100010011 >
b11110101101101100010011 ,"
b11110101101101100010011 L"
1#
#220000
0#
#225000
b1001100 ,
b1001100 G"
bx A"
b0 I
bx /
bx D"
b11001 O"
b11001 ?
b11001 /"
b0 P
b0 t
bx000000000000000000000000 K
bx000000000000000000000000 :"
bx000000000000000000000000 J"
b100 L
b100 9"
b100 H"
18"
bx000000000000000000000000 7"
b111 Q
b111 o
06
b1 6"
xO
b10 >"
bx .
bx B"
bx M"
b1100110101101011110010011 >
b1100110101101011110010011 ,"
b1100110101101011110010011 L"
bx00 ;"
b11110010101100110010011 E"
b1001100 9
b1001000 h
b101 U
b101 p
1T
b111 G
b111 4"
b111 Z
bx e
bx w
bx 5"
b1001000 H
b1000100 `
b1000100 {
b10110 a
b10110 +"
b101 X
b101 x
b101 z
b111 [
b111 y
b10101 l
b10101 P"
b110 j
b10111 &
1#
#230000
0#
#235000
b1010000 ,
b1010000 G"
b0 1
b0 R"
b0 5
b100000010011 /
b100000010011 D"
bx00000000 K
bx00000000 :"
bx00000000 J"
b11011101101110000000100000010011 A"
b1 >"
b11001 Q
b11001 o
08"
b0xxxxxxxxxxxxxxxxxxxxxxxxxxxxxxxx00000000 7"
b11000 L
b11000 9"
b11000 H"
b1111 O"
b10110 N"
14
13"
b110 D
b110 -"
0E
bx ?
bx /"
b11000 &
b10110 l
b10110 P"
b101 j
b11001 G
b11001 4"
b11001 Z
b1001100 H
b1001000 `
b1001000 {
b1111 a
b1111 +"
b11001 [
b11001 y
b1010000 9
b1001100 h
bx E"
b100 ;"
b11011101101110000000100000010011 .
b11011101101110000000100000010011 B"
b11011101101110000000100000010011 M"
b111110110110101100110011 >
b111110110110101100110011 ,"
b111110110110101100110011 L"
1#
#240000
0#
