asm/test.vcd
$date
	Thu Jan 23 16:19:13 2025
$end
$version
	Icarus Verilog
$end
$timescale
	1ps
$end
$scope module test $end
$var reg 1 ! clk $end
$var reg 1 " rst $end
$scope module core_0 $end
$var wire 1 ! clk $end
$var wire 1 # e_br_pred_miss $end
$var wire 1 $ e_trap $end
$var wire 1 " rst $end
$var wire 32 % next_pc [31:0] $end
$var wire 32 & mw_rd_data [31:0] $end
$var wire 32 ' mw_mem_raw_r_data [31:0] $end
$var wire 32 ( mw_mem_fmt_r_data [31:0] $end
$var wire 1 ) fd_zicsr $end
$var wire 32 * fd_tmp_rs2_data [31:0] $end
$var wire 32 + fd_tmp_rs1_data [31:0] $end
$var wire 1 , fd_store $end
$var wire 1 - fd_rs2_sel $end
$var wire 32 . fd_rs2_data [31:0] $end
$var wire 1 / fd_rs1_sel $end
$var wire 32 0 fd_rs1_data [31:0] $end
$var wire 1 1 fd_reg_we $end
$var wire 32 2 fd_pc_plus4 [31:0] $end
$var wire 1 3 fd_mret $end
$var wire 1 4 fd_load $end
$var wire 1 5 fd_lduse $end
$var wire 1 6 fd_jump $end
$var wire 32 7 fd_inst [31:0] $end
$var wire 32 8 fd_imm [31:0] $end
$var wire 1 9 fd_illegal_inst $end
$var wire 1 : fd_ecall $end
$var wire 2 ; fd_e_out_sel [1:0] $end
$var wire 1 < fd_branch $end
$var wire 6 = fd_alu_sel [5:0] $end
$var wire 1 > fd_alu_in2_sel $end
$var wire 1 ? fd_alu_in1_sel $end
$var wire 32 @ e_rs1_plus_imm [31:0] $end
$var wire 32 A e_pc_plus4 [31:0] $end
$var wire 32 B e_out [31:0] $end
$var wire 4 C e_mem_we [3:0] $end
$var wire 32 D e_mem_w_data [31:0] $end
$var wire 32 E e_mem_rw_addr [31:0] $end
$var wire 1 F e_ma_stall $end
$var wire 32 G e_csr_r_data [31:0] $end
$var wire 1 H e_br_en $end
$var wire 32 I e_alu_out [31:0] $end
$var wire 32 J e_alu_in2 [31:0] $end
$var wire 32 K e_alu_in1 [31:0] $end
$var reg 1 L e_alu_in1_sel $end
$var reg 1 M e_alu_in2_sel $end
$var reg 6 N e_alu_sel [5:0] $end
$var reg 1 O e_branch $end
$var reg 1 P e_ecall $end
$var reg 3 Q e_funct3 [2:0] $end
$var reg 1 R e_illegal_inst $end
$var reg 32 S e_imm [31:0] $end
$var reg 12 T e_inst_31_20 [11:0] $end
$var reg 1 U e_jump $end
$var reg 1 V e_load $end
$var reg 1 W e_mret $end
$var reg 2 X e_out_sel [1:0] $end
$var reg 32 Y e_pc [31:0] $end
$var reg 5 Z e_rd_addr [4:0] $end
$var reg 1 [ e_reg_we $end
$var reg 5 \ e_rs1_addr [4:0] $end
$var reg 32 ] e_rs1_data [31:0] $end
$var reg 32 ^ e_rs2_data [31:0] $end
$var reg 1 _ e_store $end
$var reg 1 ` e_zicsr $end
$var reg 32 a fd_pc [31:0] $end
$var reg 32 b mw_e_out [31:0] $end
$var reg 3 c mw_funct3 [2:0] $end
$var reg 1 d mw_load $end
$var reg 5 e mw_rd_addr [4:0] $end
$var reg 1 f mw_reg_we $end
$scope module alu_0 $end
$var wire 32 g in1 [31:0] $end
$var wire 32 h in2 [31:0] $end
$var wire 6 i sel [5:0] $end
$var reg 32 j div_result [31:0] $end
$var reg 64 k mul_result_signed [63:0] $end
$var reg 64 l mul_result_unsigned [63:0] $end
$var reg 32 m out [31:0] $end
$var reg 32 n rem_result [31:0] $end
$upscope $end
$scope module br_unit_0 $end
$var wire 32 o in1 [31:0] $end
$var wire 32 p in2 [31:0] $end
$var wire 3 q sel [2:0] $end
$var reg 1 H br_en $end
$upscope $end
$scope module csr_0 $end
$var wire 12 r addr [11:0] $end
$var wire 1 ! clk $end
$var wire 1 P ecall $end
$var wire 3 s funct3 [2:0] $end
$var wire 1 R illegal_inst $end
$var wire 1 W mret $end
$var wire 32 t pc [31:0] $end
$var wire 32 u rs1_data [31:0] $end
$var wire 1 " rst $end
$var wire 5 v uimm [4:0] $end
$var wire 1 ` zicsr $end
$var wire 32 w w_data [31:0] $end
$var wire 32 x operand [31:0] $end
$var reg 32 y mcause [31:0] $end
$var reg 32 z mepc [31:0] $end
$var reg 32 { mscratch [31:0] $end
$var reg 1 | mstatus_mie $end
$var reg 1 } mstatus_mpie $end
$var reg 2 ~ mstatus_mpp [1:0] $end
$var reg 32 !" mtvec [31:0] $end
$var reg 2 "" privilege_mode [1:0] $end
$var reg 32 #" r_data [31:0] $end
$upscope $end
$scope module decoder_0 $end
$var wire 1 V e_load $end
$var wire 5 $" e_rd_addr [4:0] $end
$var wire 1 [ e_reg_we $end
$var wire 1 5 lduse $end
$var wire 32 %" inst [31:0] $end
$var reg 1 ? alu_in1_sel $end
$var reg 1 > alu_in2_sel $end
$var reg 6 &" alu_sel [5:0] $end
$var reg 1 < branch $end
$var reg 2 '" e_out_sel [1:0] $end
$var reg 1 : ecall $end
$var reg 1 9 illegal_inst $end
$var reg 32 (" imm [31:0] $end
$var reg 1 6 jump $end
$var reg 1 )" lduse_rs1 $end
$var reg 1 *" lduse_rs2 $end
$var reg 1 4 load $end
$var reg 1 3 mret $end
$var reg 1 1 reg_we $end
$var reg 1 / rs1_sel $end
$var reg 1 - rs2_sel $end
$var reg 1 , store $end
$var reg 1 +" use_rs1 $end
$var reg 1 ," use_rs2 $end
$var reg 1 ) zicsr $end
$upscope $end
$scope module ma_ctrl_0 $end
$var wire 1 ! clk $end
$var wire 32 -" in_addr [31:0] $end
$var wire 32 ." in_data [31:0] $end
$var wire 2 /" len [1:0] $end
$var wire 1 V load $end
$var wire 1 F stall $end
$var wire 1 _ store $end
$var wire 56 0" shifted_data [55:0] $end
$var reg 1 1" misaligned $end
$var reg 32 2" out_addr [31:0] $end
$var reg 32 3" out_data [31:0] $end
$var reg 32 4" prev_addr [31:0] $end
$var reg 1 5" second_access $end
$var reg 4 6" we [3:0] $end
$upscope $end
$scope module r_data_fmt_0 $end
$var wire 1 ! clk $end
$var wire 1 F e_ma_stall $end
$var wire 2 7" len [1:0] $end
$var wire 2 8" low_addr [1:0] $end
$var wire 1 9" uns $end
$var wire 32 :" shifted_data [31:0] $end
$var wire 32 ;" in_data [31:0] $end
$var reg 1 <" first_access $end
$var reg 32 =" out_data [31:0] $end
$var reg 32 >" prev_data [31:0] $end
$var reg 1 ?" second_access $end
$upscope $end
$scope module ram_0 $end
$var wire 32 @" addr1 [31:0] $end
$var wire 32 A" addr2 [31:0] $end
$var wire 1 B" ce1 $end
$var wire 1 ! clk $end
$var wire 32 C" w_data2 [31:0] $end
$var wire 4 D" we2 [3:0] $end
$var reg 32 E" r_data1 [31:0] $end
$var reg 32 F" r_data2 [31:0] $end
$upscope $end
$scope module reg_file_0 $end
$var wire 1 ! clk $end
$var wire 5 G" r_addr1 [4:0] $end
$var wire 5 H" r_addr2 [4:0] $end
$var wire 5 I" w_addr [4:0] $end
$var wire 32 J" w_data [31:0] $end
$var wire 1 f we $end
$var wire 32 K" r_data2 [31:0] $end
$var wire 32 L" r_data1 [31:0] $end
$upscope $end
$upscope $end
$upscope $end
$enddefinitions $end
#0
$dumpvars
bx L"
bx K"
bx J"
bx I"
bx H"
bx G"
bx F"
bx E"
bx D"
bx C"
xB"
bx A"
b0 @"
x?"
bx >"
bx ="
x<"
bx ;"
bx :"
x9"
bx 8"
bx 7"
bx 6"
x5"
bx 4"
bx 3"
bx 2"
x1"
bx 0"
bx /"
bx ."
bx -"
x,"
x+"
x*"
x)"
bx ("
bx '"
bx &"
bx %"
bx $"
bx #"
b11 ""
bx !"
bx ~
x}
x|
bx {
bx z
bx y
bx x
bx w
bx v
bx u
bx t
bx s
bx r
bx q
bx p
bx o
bx n
bx m
bx l
bx k
bx j
bx i
bx h
bx g
xf
bx e
xd
bx c
bx b
bx a
x`
x_
bx ^
bx ]
bx \
x[
bx Z
bx Y
bx X
xW
xV
xU
bx T
bx S
xR
bx Q
xP
xO
bx N
xM
xL
bx K
bx J
bx I
xH
bx G
xF
bx E
bx D
bx C
bx B
bx A
bx @
x?
x>
bx =
x<
bx ;
x:
x9
bx 8
bx 7
x6
x5
x4
x3
bx 2
x1
bx 0
x/
bx .
x-
x,
bx +
bx *
x)
bx (
bx '
bx &
b0 %
x$
x#
1"
0!
$end
#5000
1B"
b0 w
0F
0#
05
0$
b0 B
b0 I
b0 m
b0 C
b0 6"
b0 D"
b0 D
b0 3"
b0 C"
b0 E
b0 2"
b0 A"
01"
b0 0"
b0 J
b0 h
b0 K
b0 g
0*"
0)"
b0 /"
1H
b0 x
b0 G
b0 #"
b0 8"
b0 &
b0 J"
b0 7"
09"
1|
05"
bx00 4"
b100 2
b0 a
0R
0W
0P
0`
0_
0V
0O
0U
b0 X
0[
b0 N
b0 i
0M
0L
b0 @
b0 -"
b0 S
b0 ^
b0 p
b0 ."
b0 ]
b0 o
b0 u
b100 A
b0 Y
b0 t
b0 Z
b0 $"
b0 Q
b0 q
b0 s
b0 \
b0 v
b0 T
b0 r
0d
0f
b0 b
b0 e
b0 I"
b0 c
1!
#10000
0!
#15000
b0 .
b0 0
b0 *
b0 K"
b0 +
b0 L"
b0 H"
b0 G"
0,"
0+"
03
0:
0)
0,
04
0<
06
b1 ;
b1 '"
11
b1000000000000 8
b1000000000000 ("
09
0<"
b0 4"
b1010100110111 '
b1010100110111 ;"
b1010100110111 F"
b1010100110111 7
b1010100110111 %"
b1010100110111 E"
1!
#20000
0!
#22000
b100 %
b100 @"
0"
#25000
b110111 (
b110111 ="
b1000 %
b1000 @"
bx I
bx m
bx +
bx L"
1/
b1010100110111 :"
b0x000000000000 .
b1000000000000 0
b0x000000000000 J
b0x000000000000 h
b1010 G"
1+"
b0 =
b0 &"
b0 ;
b0 '"
1>
0?
b0 8
b0 ("
b1000000000000 B
b1000000000000 E
b1000000000000 2"
b1000000000000 A"
b1 /"
0H
b1010000010100010011 7
b1010000010100010011 %"
b1010000010100010011 E"
0?"
b1010100110111 >"
b1000 2
b100 a
b1 X
1[
bx N
bx i
xM
xL
b1000000000000 @
b1000000000000 -"
b1000000000000 S
b1010 Z
b1010 $"
b1 Q
b1 q
b1 s
1!
#30000
0!
#35000
b1000000000000 +
b1000000000000 L"
b1000000000000 I
b1000000000000 m
b1100 %
b1100 @"
b11111111111111111111111111110111 (
b11111111111111111111111111110111 ="
b0x000000000000 .
b1000000000000 0
b0 J
b0 h
b11111111111111111111111111110111 :"
b1000000000000 &
b1000000000000 J"
b1 7"
b1000000000000 B
b1000000000000 x
b1000000000000 K
b1000000000000 g
b0 /"
xH
b0x000000000000 D
b0x000000000000 3"
b0x000000000000 C"
14
1f
b1000000000000 b
b1010 e
b1010 I"
b1 c
b0 X
b0 N
b0 i
1M
0L
b0 S
b0x000000000000 0"
b0x000000000000 ^
b0x000000000000 p
b0x000000000000 ."
b1000000000000 @
b1000000000000 -"
b1000000000000 ]
b1000000000000 o
b1000000000000 u
b1000 A
b100 Y
b100 t
b0 Q
b0 q
b0 s
b1010 \
b1010 v
b1100 2
b1000 a
b1000000000000 4"
b11111111111111111111111111110111 '
b11111111111111111111111111110111 ;"
b11111111111111111111111111110111 F"
b1010010010110000011 7
b1010010010110000011 %"
b1010010010110000011 E"
1!
#40000
0!
#45000
b10000 %
b10000 @"
b0x000000000000 0
b1000000000000 w
b0 +
b0 L"
b0 G"
0+"
04
b1 ;
b1 '"
bx =
bx &"
x>
x?
b1000000000000 8
b1000000000000 ("
x/
b10 /"
0H
b0 7"
b1011000110111 7
b1011000110111 %"
b1011000110111 E"
b11111111111111111111111111110111 >"
b10000 2
b1100 a
1V
b1100 A
b1000 Y
b1000 t
b1011 Z
b1011 $"
b10 Q
b10 q
b10 s
b0 c
1!
#50000
0!
#55000
b10100 %
b10100 @"
bx .
b1000000000000 0
b0x000000000000 w
bx *
bx K"
bx +
bx L"
b11111111111111111111111111110111 &
b11111111111111111111111111110111 J"
b10 7"
bx I
bx m
b0x000000000000 J
b0x000000000000 h
b0x00000000xx00 K
b0x00000000xx00 g
bx D
bx 3"
bx C"
bx00 E
bx00 2"
bx00 A"
bx 0"
b0x000000000000 x
b1 /"
xH
b100 H"
b1100 G"
1/
1+"
b0 =
b0 &"
b0 ;
b0 '"
1>
0?
b100 8
b100 ("
1d
b1011 e
b1011 I"
b10 c
0V
b1 X
bx N
bx i
xM
xL
b1000000000000 S
bx @
bx -"
b0x000000000000 ]
b0x000000000000 o
b0x000000000000 u
b10000 A
b1100 Y
b1100 t
b1100 Z
b1100 $"
b1 Q
b1 q
b1 s
b0 \
b0 v
b10100 2
b10000 a
b10001100000011000010011 7
b10001100000011000010011 %"
b10001100000011000010011 E"
1!
#60000
0!
#65000
b0x000000000x00 .
bx (
bx ="
b11000 %
b11000 @"
b1000000000100 I
b1000000000100 m
b1000000000000 +
b1000000000000 L"
bx :"
b0 *
b0 K"
b1000000000100 0
b0 w
b0 H"
14
b0 8
b0 ("
b1000000000100 B
b100 J
b100 h
b1000000000100 E
b1000000000100 2"
b1000000000100 A"
b0xxxxxxxxxxxxxxxxxxxxxxxxxxxxxxxx 0"
b1000000000000 x
b1000000000000 K
b1000000000000 g
b0 /"
b1000000000000 &
b1000000000000 J"
b1 7"
bx '
bx ;"
bx F"
b1100010011010000011 7
b1100010011010000011 %"
b1100010011010000011 E"
bx00 4"
b11000 2
b10100 a
b0 X
b0 N
b0 i
1M
0L
b100 S
bx ^
bx p
bx ."
b1000000000100 @
b1000000000100 -"
b1000000000000 ]
b1000000000000 o
b1000000000000 u
b10100 A
b10000 Y
b10000 t
b0 Q
b0 q
b0 s
b1100 \
b1100 v
b100 T
b100 r
0d
b1100 e
b1100 I"
b1 c
1!
#70000
0!
#75000
b1000000000100 w
b11100 %
b11100 @"
b0x000000000x00 0
b111 (
b111 ="
b111 :"
b0 +
b0 L"
b1000000000100 &
b1000000000100 J"
b0 7"
b0 J
b0 h
b1000000000100 K
b1000000000100 g
b1000000000100 x
b10 /"
0H
b0x000000000x00 D
b0x000000000x00 3"
b0x000000000x00 C"
b0 G"
x/
0+"
04
b1 ;
b1 '"
bx =
bx &"
x>
x?
b1000000000100 b
b0 c
1V
b0 S
b0x000000000x00 0"
b0x000000000x00 ^
b0x000000000x00 p
b0x000000000x00 ."
b1000000000100 @
b1000000000100 -"
b1000000000100 ]
b1000000000100 o
b1000000000100 u
b11000 A
b10100 Y
b10100 t
b1101 Z
b1101 $"
b10 Q
b10 q
b10 s
b0 T
b0 r
b11100 2
b11000 a
bx >"
b1000000000100 4"
b111 '
b111 ;"
b111 F"
b1010110111 7
b1010110111 %"
b1010110111 E"
1!
#80000
0!
#85000
b100000 %
b100000 @"
b0 w
bx +
bx L"
1/
b0 .
b0 0
b0x000000000x00 J
b0x000000000x00 h
b101 G"
1+"
b0 =
b0 &"
b0 ;
b0 '"
1>
0?
b0 B
bx I
bx m
b0x0000000xxx00 K
b0x0000000xxx00 g
bx D
bx 3"
bx C"
bx00 E
bx00 2"
bx00 A"
bx 0"
b0x000000000x00 x
b0 /"
xH
b111 &
b111 J"
b10 7"
b101000001010010011 7
b101000001010010011 %"
b101000001010010011 E"
b111 >"
b100000 2
b11100 a
0V
b1 X
bx N
bx i
xM
xL
bx @
bx -"
b0x000000000x00 ]
b0x000000000x00 o
b0x000000000x00 u
b11100 A
b11000 Y
b11000 t
b101 Z
b101 $"
b0 Q
b0 q
b0 s
b0 \
b0 v
1d
b1101 e
b1101 I"
b10 c
1!
#90000
0!
#95000
b0 I
b0 m
b100100 %
b100100 @"
bx (
bx ="
b0 .
b0 0
b0 D
b0 3"
b0 C"
bx :"
b0 +
b0 L"
b0 &
b0 J"
b0 7"
b0 B
b0 J
b0 h
b0 0"
1H
b0 x
b0 K
b0 g
b0 E
b0 2"
b0 A"
b0 G"
x/
0+"
b1 ;
b1 '"
bx =
bx &"
x>
x?
0d
b0 b
b101 e
b101 I"
b0 c
b0 X
b0 N
b0 i
1M
0L
b0 ^
b0 p
b0 ."
b0 @
b0 -"
b0 ]
b0 o
b0 u
b100000 A
b11100 Y
b11100 t
b101 \
b101 v
b100100 2
b100000 a
bx00 4"
bx '
bx ;"
bx F"
b1100110111 7
b1100110111 %"
b1100110111 E"
1!
#100000
0!
#105000
b110111 (
b110111 ="
b101000 %
b101000 @"
bx I
bx m
b1010100110111 :"
bx +
bx L"
1/
b0x00000 K
b0x00000 g
b110 G"
1+"
b0 =
b0 &"
b0 ;
b0 '"
1>
0?
b100000 8
b100000 ("
b1010100110111 '
b1010100110111 ;"
b1010100110111 F"
b10000000110000001100010011 7
b10000000110000001100010011 %"
b10000000110000001100010011 E"
b0 4"
bx >"
b101000 2
b100100 a
b1 X
bx N
bx i
xM
xL
b100100 A
b100000 Y
b100000 t
b110 Z
b110 $"
b0 \
b0 v
1!
#110000
0!
#115000
b100000 I
b100000 m
b101100 %
b101100 @"
b11111111111111111111111111110111 +
b11111111111111111111111111110111 L"
b11111111111111111111111111110111 0
b100000 B
b100000 J
b100000 h
b100000 E
b100000 2"
b100000 A"
b0 K
b0 g
b1011 G"
0-
0/
1,"
1<
01
1?
b10000 8
b10000 ("
b110 e
b110 I"
b0 X
b0 N
b0 i
1M
0L
b100000 @
b100000 -"
b100000 S
b101000 A
b100100 Y
b100100 t
b110 \
b110 v
b100000 T
b100000 r
b101100 2
b101000 a
b1010100110111 >"
b1011100100001100011 7
b1011100100001100011 %"
b1011100100001100011 E"
1!
#120000
0!
#125000
b0x000000xxxx00 .
b0xxx000 0
b111000 %
b111000 @"
b111000 B
b1100110111 :"
b1000000000100 *
b1000000000100 K"
b0 +
b0 L"
x-
x/
1#
b111000 I
b111000 m
b1100 H"
b0 G"
0,"
0+"
0<
16
b10 ;
b10 '"
11
b101100 8
b101100 ("
b10000 J
b10000 h
b101000 K
b101000 g
b100 E
b100 2"
b100 A"
b1011 x
b100000 &
b100000 J"
b1100110111 '
b1100110111 ;"
b1100110111 F"
b10110000000000000001101111 7
b10110000000000000001101111 %"
b10110000000000000001101111 E"
b100000 4"
b110000 2
b101100 a
1O
0[
1L
b10000 S
b111 @
b111 -"
b11111111111111111111111111110111 ]
b11111111111111111111111111110111 o
b11111111111111111111111111110111 u
b101100 A
b101000 Y
b101000 t
b10000 Z
b10000 $"
b100 Q
b100 q
b100 s
b1011 \
b1011 v
b0 T
b0 r
b100000 b
1!
#130000
0!
#135000
b111100 %
b111100 @"
b0 0
b0 B
b0 .
b10011 (
b10011 ="
0#
b0 I
b0 m
b1010000010100010011 :"
b0 *
b0 K"
b111000 &
b111000 J"
19"
b0 J
b0 h
b0 K
b0 g
b0 x
b0 E
b0 2"
b0 A"
b0 H"
06
b1 ;
b1 '"
bx =
bx &"
x>
x?
b0 8
b0 ("
0f
b111000 b
b10000 e
b10000 I"
b100 c
0O
0M
0L
b0 S
b0 @
b0 -"
b0 ]
b0 o
b0 u
b100 A
b0 Y
b0 t
b0 Z
b0 $"
b0 Q
b0 q
b0 s
b0 \
b0 v
b111100 2
b111000 a
b1100110111 >"
b100 4"
b1010000010100010011 '
b1010000010100010011 ;"
b1010000010100010011 F"
b1110110111 7
b1110110111 %"
b1110110111 E"
1!
#140000
0!
#145000
b110111 (
b110111 ="
b1000000 %
b1000000 @"
bx I
bx m
b1010100110111 :"
bx +
bx L"
1/
b0xxx000 K
b0xxx000 g
b111 G"
1+"
b0 =
b0 &"
b0 ;
b0 '"
1>
0?
b0 &
b0 J"
09"
b1010100110111 '
b1010100110111 ;"
b1010100110111 F"
b111000001110010011 7
b111000001110010011 %"
b111000001110010011 E"
b0 4"
b1010000010100010011 >"
b1000000 2
b111100 a
b1 X
1[
bx N
bx i
xM
xL
b111100 A
b111000 Y
b111000 t
b111 Z
b111 $"
b0 b
b0 e
b0 I"
b0 c
1!
#150000
0!
#155000
b0 +
b0 L"
b0 I
b0 m
b1000100 %
b1000100 @"
b11111111111111111111111111110111 .
b0 0
b11111111111111111111111111110111 *
b11111111111111111111111111110111 K"
b0 B
b0 K
b0 g
b1011 H"
0-
1,"
b1000 =
b1000 &"
0>
bx 8
bx ("
1f
b111 e
b111 I"
b0 X
b0 N
b0 i
1M
0L
b1000000 A
b111100 Y
b111100 t
b111 \
b111 v
b1000100 2
b1000000 a
b1010100110111 >"
b1000000101100111000010110110011 7
b1000000101100111000010110110011 %"
b1000000101100111000010110110011 E"
1!
#160000
0!
#165000
bx .
b0x00x 0
bx *
bx K"
b1001000 %
b1001000 @"
x-
b1001 B
b10100 H"
b0 G"
0,"
0+"
16
b10 ;
b10 '"
b0 =
b0 &"
1>
1?
b10100 8
b10100 ("
b1001 I
b1001 m
b11111111111111111111111111110111 J
b11111111111111111111111111110111 h
0H
bx D
bx 3"
bx C"
bx00 E
bx00 2"
bx00 A"
x/
b1010000000000000001101111 7
b1010000000000000001101111 %"
b1010000000000000001101111 E"
b1001000 2
b1000100 a
b1000 N
b1000 i
0M
bx @
bx -"
bx S
bx 0"
b11111111111111111111111111110111 ^
b11111111111111111111111111110111 p
b11111111111111111111111111110111 ."
b1000100 A
b1000000 Y
b1000000 t
b1011 Z
b1011 $"
b10000001011 T
b10000001011 r
1!
#170000
0!
#175000
b1011000 %
b1011000 @"
bx (
bx ="
b0x00x000 .
b0x00x000 0
b0xxxxxxxxxxxxxxxxxxxxxxxx :"
b0 *
b0 K"
b1 8"
b1001 &
b1001 J"
1#
b1001000 B
b1011000 I
b1011000 m
b10100 J
b10100 h
b1000100 K
b1000100 g
xH
b0x00x x
b0 H"
06
b1 ;
b1 '"
bx =
bx &"
x>
x?
b0 8
b0 ("
b1001 b
b1011 e
b1011 I"
1U
b10 X
b0 N
b0 i
1M
1L
b10100 S
bx ^
bx p
bx ."
b0x00x ]
b0x00x o
b0x00x u
b1001000 A
b1000100 Y
b1000100 t
b0 Z
b0 $"
b0 \
b0 v
b10100 T
b10100 r
b1001100 2
b1001000 a
bx00 4"
bx '
bx ;"
bx F"
b1110110111 7
b1110110111 %"
b1110110111 E"
1!
#180000
0!
#185000
b1011100 %
b1011100 @"
bx :"
b100000 +
b100000 L"
0-
0/
b0 .
b100000 0
b0 I
b0 m
b110 G"
1,"
1+"
1<
b0 ;
b0 '"
01
b0 =
b0 &"
1>
1?
b100000 8
b100000 ("
0#
b0 B
b0 J
b0 h
b0 D
b0 3"
b0 C"
b0 E
b0 2"
b0 A"
b0 0"
1H
b0 x
b0 K
b0 g
b0 8"
b1001000 &
b1001000 J"
b10000000110000000001100011 7
b10000000110000000001100011 %"
b10000000110000000001100011 E"
bx >"
b1011100 2
b1011000 a
0U
b0 X
0[
0M
0L
b0 S
b0 ^
b0 p
b0 ."
b0 @
b0 -"
b0 ]
b0 o
b0 u
b100 A
b0 Y
b0 t
b0 T
b0 r
b1001000 b
b0 e
b0 I"
1!
#190000
0!
#195000
b1001 0
b1111000 B
b1100000 %
b1100000 @"
b110111 (
b110111 ="
b1001 +
b1001 L"
bx .
b100000 J
b100000 h
b1111000 I
b1111000 m
b1010100110111 :"
bx *
bx K"
b0 &
b0 J"
b1011000 K
b1011000 g
0H
b100000 x
b1000000 E
b1000000 2"
b1000000 A"
b1 H"
b1011 G"
x-
0,"
0<
b111 =
b111 &"
11
0?
b1 8
b1 ("
0f
b0 b
1O
1M
1L
b100000 S
b1000000 @
b1000000 -"
b100000 ]
b100000 o
b100000 u
b1011100 A
b1011000 Y
b1011000 t
b110 \
b110 v
b100000 T
b100000 r
b1100000 2
b1011100 a
b0 4"
b1010100110111 '
b1010100110111 ;"
b1010100110111 F"
b101011111001110010011 7
b101011111001110010011 %"
b101011111001110010011 E"
1!
#200000
0!
#205000
b11111111111111111111111110110011 (
b11111111111111111111111110110011 ="
b0 +
b0 L"
b1100100 %
b1100100 @"
b0 .
b1 0
b1000000101100111000010110110011 :"
b0 *
b0 K"
0-
b1 B
b0 H"
b111 G"
1,"
1<
01
b0 =
b0 &"
1?
b1000 8
b1000 ("
b1 I
b1 m
b1 J
b1 h
bx0000000000000000 D
bx0000000000000000 3"
bx0000000000000000 C"
b1000 E
b1000 2"
b1000 A"
b1011 x
b1001 K
b1001 g
1/
b11 /"
xH
b1111000 &
b1111000 J"
b1000000101100111000010110110011 '
b1000000101100111000010110110011 ;"
b1000000101100111000010110110011 F"
b111000010001100011 7
b111000010001100011 %"
b111000010001100011 E"
b1000000 4"
b1010100110111 >"
b1100100 2
b1100000 a
0O
1[
b111 N
b111 i
0L
b1 S
b0xxxxxxxxxxxxxxxxxxxxxxxxxxxxxxxx0000000000000000 0"
bx ^
bx p
bx ."
b1010 @
b1010 -"
b1001 ]
b1001 o
b1001 u
b1100000 A
b1011100 Y
b1011100 t
b111 Z
b111 $"
b111 Q
b111 q
b111 s
b1011 \
b1011 v
b1 T
b1 r
b1111000 b
1!
#210000
0!
#215000
b1101000 %
b1101000 @"
b111 .
b0 0
b10100100101 (
b10100100101 ="
b1101000 B
b10100100101 :"
b111 *
b111 K"
b1 8"
b1 &
b1 J"
b11 7"
19"
b1101000 I
b1101000 m
b1000 J
b1000 h
b1100000 K
b1100000 g
b0 /"
0H
b1 x
b0 D
b0 3"
b0 C"
b1101 H"
b101 G"
0/
0<
11
0>
0?
bx 8
bx ("
1f
b1 b
b111 e
b111 I"
b111 c
1O
0[
b0 N
b0 i
1L
b1000 S
b0 0"
b0 ^
b0 p
b0 ."
b1001 @
b1001 -"
b1 ]
b1 o
b1 u
b1100100 A
b1100000 Y
b1100000 t
b1000 Z
b1000 $"
b0 Q
b0 q
b0 s
b111 \
b111 v
b0 T
b0 r
b1101000 2
b1100100 a
b1000000101100111000010110110011 >"
b1000 4"
b1010010010110000011 '
b1010010010110000011 ;"
b1010010010110000011 F"
b110100101000001010110011 7
b110100101000001010110011 %"
b110100101000001010110011 E"
1!
#220000
0!
#225000
b1001 0
bx .
bx *
bx K"
b1001 +
b1001 L"
b1101100 %
b1101100 @"
b111 B
b1010010010110000011 :"
x-
b111 I
b111 m
b11111111111111111111111110000011 (
b11111111111111111111111110000011 ="
b1 H"
b1011 G"
0,"
b1101 =
b1101 &"
1>
b10000000001 8
b10000000001 ("
b111 J
b111 h
bx D
bx 3"
bx C"
bx00 E
bx00 2"
bx00 A"
b0 x
b0 K
b0 g
b0 8"
b1101000 &
b1101000 J"
b0 7"
09"
b1000000000101011101010110010011 7
b1000000000101011101010110010011 %"
b1000000000101011101010110010011 E"
b1010010010110000011 >"
b1101100 2
b1101000 a
0O
1[
0M
0L
bx S
bx 0"
b111 ^
b111 p
b111 ."
bx @
bx -"
b0 ]
b0 o
b0 u
b1101000 A
b1100100 Y
b1100100 t
b101 Z
b101 $"
b101 \
b101 v
b1101 T
b1101 r
0f
b1101000 b
b1000 e
b1000 I"
b0 c
1!
#230000
0!
#235000
b111 0
b1110000 %
b1110000 @"
bx (
bx ="
b111 +
b111 L"
b100 B
bx0000000000000000 D
bx0000000000000000 3"
bx0000000000000000 C"
b1011 w
b0xxxxxxxx :"
b11 8"
b111 &
b111 J"
b100 I
b100 m
b0xxxxxxxxxxxxxxxxxxxxxxxxxxxxxxxx0000000000000000 0"
b10000000001 J
b10000000001 h
b1001 K
b1001 g
b1011 x
b1 /"
xH
b10000001000 E
b10000001000 2"
b10000001000 A"
b1101 G"
b1 =
b1 &"
b1 8
b1 ("
1f
b111 b
b101 e
b101 I"
b1101 N
b1101 i
1M
b10000001010 @
b10000001010 -"
b10000000001 S
bx ^
bx p
bx ."
b1001 ]
b1001 o
b1001 u
b1101100 A
b1101000 Y
b1101000 t
b1011 Z
b1011 $"
b101 Q
b101 q
b101 s
b1011 \
b1011 v
b10000000001 T
b10000000001 r
b1110000 2
b1101100 a
bx00 4"
bx '
bx ;"
bx F"
b101101001011010010011 7
b101101001011010010011 %"
b101101001011010010011 E"
1!
#240000
0!
#245000
b100000 0
b100000 +
b100000 L"
b1110100 %
b1110100 @"
b0 :"
b1110 B
b111 w
b0 (
b0 ="
b11111 H"
b110 G"
b0 =
b0 &"
b11111111111111111111111111111111 8
b11111111111111111111111111111111 ("
b1110 I
b1110 m
b1 J
b1 h
b111 K
b111 g
bx D
bx 3"
bx C"
b1000 E
b1000 2"
b1000 A"
b0xxxxxxxxxxxxxxxxxxxxxxxxxxxxxxxx 0"
b111 x
b0 8"
b100 &
b100 J"
b1 7"
19"
b0 '
b0 ;"
b0 F"
b11111111111100110000001100010011 7
b11111111111100110000001100010011 %"
b11111111111100110000001100010011 E"
b10000001000 4"
bx >"
b1110100 2
b1110000 a
b1 N
b1 i
b1 S
b1000 @
b1000 -"
b111 ]
b111 o
b111 u
b1110000 A
b1101100 Y
b1101100 t
b1101 Z
b1101 $"
b1 Q
b1 q
b1 s
b1101 \
b1101 v
b1 T
b1 r
b100 b
b1011 e
b1011 I"
b101 c
1!
#250000
0!
